{
  "extParams": {},
  "object": {
    "endRow": 10,
    "firstPage": 1,
    "hasNextPage": true,
    "hasPreviousPage": false,
    "isFirstPage": true,
    "isLastPage": false,
    "lastPage": 8,
    "list": [
      {
        "baseline": false,
        "createTime": 1590118635000,
        "creator": {
          "imgUrl": "perfma-default-biz-avatar.jpg",
          "nickName": "杭州笨马网络技术有限公司",
          "uid": "132078224594309120"
        },
        "id": "470554916046241792",
        "labels": [],
        "pass": true,
        "reportStatus": "ANALYSED",
        "scene": {
          "id": "56225149482958848",
          "name": "多线程组-压tracemock-191-5-11-用户数"
        },
        "sceneExecId": "57029355452235776",
        "title": "多线程组-压tracemock-191-5-11-用户数压测报告",
        "users": 32,
        "warnCount": 0
      },
      {
        "baseline": false,
        "createTime": 1590118018000,
        "creator": {
          "imgUrl": "perfma-default-biz-avatar.jpg",
          "nickName": "杭州笨马网络技术有限公司",
          "uid": "132078224594309120"
        },
        "id": "470552328785625088",
        "labels": [],
        "pass": true,
        "reportStatus": "ANALYSED",
        "scene": {
          "id": "56225149482958848",
          "name": "多线程组-压tracemock-191-5-11-用户数"
        },
        "sceneExecId": "57028708457775104",
        "title": "多线程组-压tracemock-191-5-11-用户数压测报告",
        "users": 32,
        "warnCount": 0
      },
      {
        "baseline": false,
        "createTime": 1590055613000,
        "creator": {
          "imgUrl": "perfma-default-biz-avatar.jpg",
          "nickName": "杭州笨马网络技术有限公司",
          "uid": "132078224594309120"
        },
        "id": "470290585052250112",
        "labels": [],
        "pass": false,
        "reportStatus": "FINISHED",
        "scene": {
          "id": "56225149482958848",
          "name": "多线程组-压tracemock-191-5-11-用户数"
        },
        "sceneExecId": "56963272133312512",
        "title": "多线程组-压tracemock-191-5-11-用户数压测报告",
        "users": 32,
        "warnCount": 0
      },
      {
        "baseline": false,
        "createTime": 1590055454000,
        "creator": {
          "imgUrl": "perfma-default-biz-avatar.jpg",
          "nickName": "杭州笨马网络技术有限公司",
          "uid": "132078224594309120"
        },
        "id": "470289917050617856",
        "labels": [],
        "pass": false,
        "reportStatus": "ANALYSED",
        "scene": {
          "id": "56143248297558016",
          "name": "jmeter多线程组-压xspider-用户数-并行"
        },
        "sceneExecId": "56963105734787072",
        "title": "jmeter多线程组-压xspider-用户数-并行压测报告",
        "users": 45,
        "warnCount": 23
      },
      {
        "baseline": false,
        "createTime": 1590054752000,
        "creator": {
          "imgUrl": "perfma-default-biz-avatar.jpg",
          "nickName": "杭州笨马网络技术有限公司",
          "uid": "132078224594309120"
        },
        "id": "470286974792499200",
        "labels": [],
        "pass": false,
        "reportStatus": "ANALYSED",
        "scene": {
          "id": "56143248297558016",
          "name": "jmeter多线程组-压xspider-用户数-并行"
        },
        "sceneExecId": "56962370149285888",
        "title": "jmeter多线程组-压xspider-用户数-并行压测报告",
        "users": 45,
        "warnCount": 20
      },
      {
        "baseline": false,
        "createTime": 1590053660000,
        "creator": {
          "imgUrl": "perfma-default-biz-avatar.jpg",
          "nickName": "杭州笨马网络技术有限公司",
          "uid": "132078224594309120"
        },
        "id": "470282393551372288",
        "labels": [],
        "pass": false,
        "reportStatus": "ANALYSED",
        "scene": {
          "id": "56143248297558016",
          "name": "jmeter多线程组-压xspider-用户数-并行"
        },
        "sceneExecId": "56961224620900352",
        "title": "jmeter多线程组-压xspider-用户数-并行压测报告",
        "users": 45,
        "warnCount": 20
      },
      {
        "baseline": false,
        "createTime": 1590052133000,
        "creator": {
          "imgUrl": "perfma-default-biz-avatar.jpg",
          "nickName": "杭州笨马网络技术有限公司",
          "uid": "132078224594309120"
        },
        "id": "470275987515375616",
        "labels": [],
        "pass": false,
        "reportStatus": "ANALYSED",
        "scene": {
          "id": "56143248297558016",
          "name": "jmeter多线程组-压xspider-用户数-并行"
        },
        "sceneExecId": "56959623219904512",
        "title": "jmeter多线程组-压xspider-用户数-并行压测报告",
        "users": 45,
        "warnCount": 20
      },
      {
        "baseline": false,
        "createTime": 1590050328000,
        "creator": {
          "imgUrl": "perfma-default-biz-avatar.jpg",
          "nickName": "杭州笨马网络技术有限公司",
          "uid": "132078224594309120"
        },
        "id": "470268416767295488",
        "labels": [],
        "pass": true,
        "reportStatus": "ANALYSED",
        "scene": {
          "id": "56225149482958848",
          "name": "多线程组-压tracemock-191-5-11-用户数"
        },
        "sceneExecId": "56957730576924672",
        "title": "多线程组-压tracemock-191-5-11-用户数压测报告",
        "users": 32,
        "warnCount": 0
      },
      {
        "baseline": false,
        "createTime": 1590047908000,
        "creator": {
          "imgUrl": "perfma-default-biz-avatar.jpg",
          "nickName": "杭州笨马网络技术有限公司",
          "uid": "132078224594309120"
        },
        "id": "470258268338388992",
        "labels": [],
        "pass": false,
        "reportStatus": "ANALYSED",
        "scene": {
          "id": "50704752029204480",
          "name": "压tracemock-0.37-TPS不要超过100-飞渔用20200313161019"
        },
        "sceneExecId": "56955184947920896",
        "title": "压tracemock-0.37-TPS不要超过100-飞渔用20200313161019压测报告",
        "users": 1,
        "warnCount": 72
      },
      {
        "baseline": false,
        "createTime": 1590039249000,
        "creator": {
          "imgUrl": "perfma-default-biz-avatar.jpg",
          "nickName": "杭州笨马网络技术有限公司",
          "uid": "132078224594309120"
        },
        "id": "470221949373513728",
        "labels": [],
        "pass": false,
        "reportStatus": "ANALYSED",
        "scene": {
          "id": "56143248297558016",
          "name": "jmeter多线程组-压xspider-用户数-并行"
        },
        "sceneExecId": "56946113666613248",
        "title": "jmeter多线程组-压xspider-用户数-并行压测报告",
        "users": 45,
        "warnCount": 19
      }
    ],
    "navigateFirstPage": 1,
    "navigateLastPage": 8,
    "navigatePages": 8,
    "navigatepageNums": [
      1,
      2,
      3,
      4,
      5,
      6,
      7,
      8
    ],
    "nextPage": 2,
    "orderBy": "modify_time desc",
    "pageNum": 1,
    "pageSize": 10,
    "pages": 57,
    "prePage": 0,
    "size": 10,
    "startRow": 1,
    "total": 569
  },
  "success": true
}